{
    "unoutStatement": {
        "length": 20,
        "offset": 1,
        "page": 1,
        "rows": [{
            "statementId": "0001",
            "statementCircle": "7月5日-8月5日",
            "statementDate": "2019年8月7日",
            "repaymentDate": "2019年8月7日",
            "corpName": "飞巴商旅",
            "corpCode": "HZFB-168",
            "corpId": "1111539",
            "statementAmount": "16520",
            "paidAmount": "380",
            "statementStatus": "未生成"
        }],
        "total": 1,
        "totalPage": 1
    },
    "unissuedStatement": {
        "length": 20,
        "offset": 1,
        "page": 1,
        "rows": [{
            "statementId": "0001",
            "issuedAuditStatus": "未审核",
            "statementCircle": "7月5日-8月5日",
            "statementDate": "2019年8月7日",
            "repaymentDate": "2019年8月7日",
            "corpName": "飞巴商旅",
            "corpCode": "HZFB-168",
            "corpId": "1111539",
            "statementAmount": "18760",
            "paidAmount": "320",
            "statementStatus": "已生成未下发",
            "issuedAuditDate": "2019年8月7日",
            "issuedAuditor": "应孟霖"
        }],
        "total": 1,
        "totalPage": 1
    },
    "unsettlementStatement": {
        "length": 20,
        "offset": 1,
        "page": 1,
        "rows": [{
            "settlementAuditStatus": "已审核",
            "statementCircle": "7月5日-8月5日",
            "statementDate": "2019年8月7日",
            "issuedDate": "2019年8月7日",
            "issuedOperator": "应孟霖",
            "repaymentDate": "2019年8月7日",
            "overdueDays": "3",
            "corpName": "飞巴商旅",
            "corpCode": "HZFB-168",
            "corpId": "1111539",
            "statementAmount": "3600",
            "paidAmount": "2400",
            "statementStatus": "已下发待结算",
            "settlementOperator": "应孟霖",
            "settlementAuditDate": "2019年8月7日"
        }],
        "total": 1,
        "totalPage": 1
    },
    "settledStatement": {
        "length": 20,
        "offset": 1,
        "page": 1,
        "rows": [{
            "statementCircle": "7月5日-8月5日",
            "issuedDate": "2019年8月7日",
            "issuedOperator": "应孟霖",
            "repaymentDate": "2019年8月7日",
            "overdueDays": "4",
            "corpName": "飞巴商旅",
            "corpCode": "HZFB-168",
            "corpId": "111168",
            "statementAmount": "4800",
            "paidAmount": "3600",
            "statementStatus": "已结算",
            "settlementAuditor": "应孟霖",
            "settlementAuditDate": "2019年8月7日",
            "settlementOperator": "应孟霖",
            "settlementDate": "2019年8月7日"
        }],
        "total": 1,
        "totalPage": 1
    },
    "statementSummary": {
        "corpSummaryData": {
            "statementUnit": "企业汇总",
            "settlementMoney": "82000",
            "paidAmount": "3000",
            "unpaidAmount": "79000",
            "flightAmount": "6000",
            "hotelAmount": "5200",
            "trainAmount": "1800",
            "carAmount": "3500",
            "insuranceAmount": "3000",
            "adjustmnetAmount": "2500"
        },
        "summaryDataPages": {
            "page": 1,
            "size": 5,
            "total": 6,
            "totalPage": 2,
            "rows": [{
                "statementUnit": "行政部",
                "settlementMoney": "12000",
                "paidAmount": "3000",
                "unpaidAmount": "9000",
                "flightAmount": "6080",
                "hotelAmount": "1300",
                "trainAmount": "1030",
                "carAmount": "550",
                "insuranceAmount": "2400",
                "adjustmnetAmount": "1500"
            }, {
                "statementUnit": "产品设计部",
                "settlementMoney": "2000",
                "paidAmount": "1500",
                "unpaidAmount": "500",
                "flightAmount": "850",
                "hotelAmount": "100000",
                "trainAmount": "100",
                "carAmount": "500",
                "insuranceAmount": "210",
                "adjustmnetAmount": "500"
            }, {
                "statementUnit": "技术部",
                "settlementMoney": "61000",
                "paidAmount": "100020",
                "unpaidAmount": "60000",
                "flightAmount": "6000",
                "hotelAmount": "1300",
                "trainAmount": "1400",
                "carAmount": "530",
                "insuranceAmount": "2800",
                "adjustmnetAmount": "150060"
            },{
                "statementUnit": "技术部",
                "settlementMoney": "61000",
                "paidAmount": "100020",
                "unpaidAmount": "60000",
                "flightAmount": "6000",
                "hotelAmount": "1300",
                "trainAmount": "1400",
                "carAmount": "530",
                "insuranceAmount": "2800",
                "adjustmnetAmount": "150060"
            },{
                "statementUnit": "技术部",
                "settlementMoney": "61000",
                "paidAmount": "100020",
                "unpaidAmount": "60000",
                "flightAmount": "6000",
                "hotelAmount": "1300",
                "trainAmount": "1400",
                "carAmount": "530",
                "insuranceAmount": "2800",
                "adjustmnetAmount": "150060"
            }]
        }
    },
    "unoutStatementFlightDetail": {
        "page": 1,
        "size": 20,
        "total": 100,
        "totalPage": 5,
        "rows": [{
            "makeCollectionsStatus": "已收款",
            "ticketTime": "2019.10.19",
            "orderNumber": "1304787568475122",
            "orderType": "出票",
            "costCenterName": "默认成本中心",
            "departmentName": "技术部",
            "passengerName": "应孟霖",
            "airRange": "杭州-北京",
            "departureTime": "2019年10月13日 12:20",
            "destinationTime": "2019年10月13日 14:31",
            "ticketNumber": "666-2355684",
            "flightNumber": "Fj2343",
            "seatClassName": "公务舱",
            "ticketPrice": "1208",
            "flightPrice": "1408",
            "discount": "8折",
            "oilTax": "50",
            "changeFee": "0",
            "upSeatClassFee": "0",
            "refundFee": "0",
            "insuranceFee": "90",
            "serviceFee": "40",
            "expressFee": "10",
            "settlementMoney": "1590"
        }, {
            "makeCollectionsStatus": "已收款",
            "ticketTime": "2019.10.19",
            "orderNumber": "1304787568475122",
            "orderType": "出票",
            "costCenterName": "默认成本中心",
            "departmentName": "技术部",
            "passengerName": "应孟霖",
            "airRange": "杭州-北京",
            "departureTime": "2019年10月13日 12:20",
            "destinationTime": "2019年10月13日 14:31",
            "ticketNumber": "666-2355684",
            "flightNumber": "Fj2343",
            "seatClassName": "公务舱",
            "ticketPrice": "1208",
            "flightPrice": "1408",
            "discount": "8折",
            "oilTax": "50",
            "changeFee": "0",
            "upSeatClassFee": "0",
            "refundFee": "0",
            "insuranceFee": "90",
            "serviceFee": "40",
            "expressFee": "10",
            "settlementMoney": "1590"
        }]
    },
    "unoutStatementHotelDetail": {
        "page": 1,
        "size": 20,
        "total": 1,
        "totalPage": 1,
        "rows": [{
            "makeCollectionsStatus": "已收款",
            "orderTime": "2019.10.12",
            "orderNumber": "130478715638911",
            "costCenterName": "默认成本中心",
            "departmentName": "产品部",
            "passengerName": "胡八一",
            "hotelName": "希尔顿国际酒店",
            "hotelAddress": "杭州市萧山区金城路德胜中心",
            "arrivalDate": "2019年10月13日 12:20",
            "departureDate": "2019年10月14日 12:20",
            "roomName": "标间",
            "duration": "3",
            "settlementMoney": "1200"
        }]
    },
    "unoutStatementCarDetail": {
        "page": 1,
        "size": 20,
        "total": 100,
        "totalPage": 5,
        "rows": [{
            "makeCollectionsStatus": "已收款",
            "orderTime": "2019.10.12",
            "orderNumber": "130478715638911",
            "costCenterName": "默认成本中心",
            "departmentName": "技术部",
            "passengerName": "应孟霖",
            "startName": "杭州市萧山区金城路467",
            "endName": "杭州市萧山区德胜中心",
            "orderType": "实时单",
            "orderCarType": "新能源",
            "settlementMoney": "1500",
            "orderStatus": "已出票"
        }]
    },
    "unoutStatementInsuranceDetail": {
        "page": 1,
        "size": 20,
        "total": 1,
        "totalPage": 1,
        "rows": [{
            "makeCollectionsStatus": "已收款",
            "orderTime": "2019.10.12",
            "orderNumber": "130478715638911",
            "orderType": "付款",
            "costCenterName": "默认成本中心",
            "departmentName": "产品部",
            "passengerName": "胡八一",
            "insName": "航空意外险",
            "settlementMoney": "1230"
        }]
    },
    "adjustment": {
        "page": 1,
        "size": 20,
        "total": 100,
        "totalPage": 5,
        "rows": [{
            "createTime": "2019.10.12",
            "corpName": "飞巴网络科技",
            "departmentName": "产品部",
            "businessType": "国内机票",
            "costType": "",
            "orderNumber": "130478715638911",
            "amount": "200",
            "reason": "退票补款"
        }]
    },
    "unoutStatementTrainDetail": {
        "page": 1,
        "size": 20,
        "total": 100,
        "totalPage": 5,
        "rows": [{
            "makeCollectionsStatus": "已收款",
            "orderTime": "2019.10.12",
            "orderNumber": "130478715638911",
            "orderType": "出票",
            "costCenterName": "默认成本中心",
            "departmentName": "技术部",
            "passengerName": "应孟霖",
            "fromCity": "杭州东",
            "toCity": "上海虹桥",
            "fromTime": "2019年10月13日 12:20",
            "toTime": "2019年10月13日 12:20",
            "trainNumber": "G313",
            "seatType": "二等座",
            "ticketPrice": "1480",
            "changeFee": "0",
            "serviceFee": "20",
            "settlementMoney": "1500",
            "orderStatus": "已出票"
        }]
    },
    "settledList": {
        "page": 1,
        "size": 20,
        "total": 1,
        "totalPage": 1,
        "rows": [{
            "settledOperator": "应孟霖",
            "settledTime": "2019年8月7日",
            "settledAmount": "20000",
            "settledType": "月结",
            "receiverAccount": "62614025869",
            "receiverNumber": "140253589",
            "receiverName": "邓国泉"
        }]
    }
}